Recap: Correlation & OLS Regression
…
- We add civil and political rights together and reverse the scale so higher values mean more citizenship rights.
]

.push-right[
<iframe src='https://en.wikipedia.org/wiki/Freedom_House' width='1200' height='670' frameborder='0' scrolling='yes'></iframe>
]]
.panel[.panel-name[Get the data]

```r
(Dat_citi_rights <- download_fh(verbose = FALSE) %>% # Download Freedom House data for all countries since 1972,
   rename(country = fh_country, # rename country ID,
          citizen_rights = fh_total_reversed, # rename Citizenship rights indicator,
          date = year) %>% # rename year,
   select(country, date, citizen_rights)) # Keep only these 3 variables.
# # A tibble: 8,655 × 3
#    country      date citizen_rights
#    <chr>       <dbl>          <dbl>
#  1 Afghanistan  1972              5
#  2 Afghanistan  1973              1
#  3 Afghanistan  1974              1
#  4 Afghanistan  1975              1
#  5 Afghanistan  1976              1
#  6 Afghanistan  1977              2
#  7 Afghanistan  1978              0
#  8 Afghanistan  1979              0
#  9 Afghanistan  1980              0
# 10 Afghanistan  1982              0
# # … with 8,645 more rows
```
…
---
class: clear
# Worldbank Data .font70[On poverty across the World]

.panelset[
.panel[.panel-name[Searching Wb archive]
- With `wbstats::wb_search()`, you can search through the Wb archive for any keyword, here I use "poverty":

```r
(wb_poverty_archive <- wb_search("poverty"))
# # A tibble: 702 × 3
#    indicator_id         indicator                               indicator_desc                                     
#    <chr>                <chr>                                   <chr>                                              
#  1 1.0.HCount.1.90usd   Poverty Headcount ($1.90 a day)         The poverty headcount index measures the proportio…
#  2 1.0.HCount.2.5usd    Poverty Headcount ($2.50 a day)         The poverty headcount index measures the proportio…
#  3 1.0.HCount.Mid10to50 Middle Class ($10-50 a day) Headcount   The poverty headcount index measures the proportio…
#  4 1.0.HCount.Ofcl      Official Moderate Poverty Rate-National The poverty headcount index measures the proportio…
#  5 1.0.HCount.Poor4uds  Poverty Headcount ($4 a day)            The poverty headcount index measures the proportio…
#  6 1.0.HCount.Vul4to10  Vulnerable ($4-10 a day) Headcount      The poverty headcount index measures the proportio…
#  7 1.0.PGap.1.90usd     Poverty Gap ($1.90 a day)               The poverty gap captures the mean aggregate income…
#  8 1.0.PGap.2.5usd      Poverty Gap ($2.50 a day)               The poverty gap captures the mean aggregate income…
#  9 1.0.PGap.Poor4uds    Poverty Gap ($4 a day)                  The poverty gap captures the mean aggregate income…
# 10 1.0.PSev.1.90usd     Poverty Severity ($1.90 a day)          The poverty severity index combines information on…
# # … with 692 more rows
```
]
.panel[.panel-name[Get Wb data]

```r
(Dat_poverty <- wb_data("SI.POV.UMIC", # Download poverty data: <5.50$ per day,
                        start_date = 2011, end_date = 2022) %>%
   rename(poverty = SI.POV.UMIC) %>% # rename poverty variable,
   select(country, date, poverty) %>% # Keep only 3 variables
   drop_na(poverty) %>% # Drop cases with missing data,
   group_by(country) %>% # Group by country,
   filter(date == max(date)) %>% # Keep the most recent data per country.
   ungroup())
# # A tibble: 153 × 3
#    country     date poverty
#    <chr>      <dbl>   <dbl>
#  1 Albania     2019    10  
#  2 Algeria     2011    28.6
#  3 Angola      2018    88.5
#  4 Argentina   2020    18.2
#  5 Armenia     2020    44.7
#  6 Australia   2018     0.7
#  7 Austria     2019     0.8
#  8 Bangladesh  2016    84.2
#  9 Belarus     2020     0.1
# 10 Belgium     2019     0.2
# # … with 143 more rows
```
…
---
# Join data .font70[Poverty and citizenship rights]

.panelset[
.panel[.panel-name[Join poverty & citizenship rights data]

```r
(Dat <- left_join(Dat_poverty, Dat_citi_rights, by = c("country", "date")))
# # A tibble: 153 × 4
#    country     date poverty citizen_rights
#    <chr>      <dbl>   <dbl>          <dbl>
#  1 Albania     2019    10                8
#  2 Algeria     2011    28.6              3
#  3 Angola      2018    88.5              3
#  4 Argentina   2020    18.2             10
#  5 Armenia     2020    44.7              6
#  6 Australia   2018     0.7             12
#  7 Austria     2019     0.8             12
#  8 Bangladesh  2016    84.2              6
#  9 Belarus     2020     0.1              1
# 10 Belgium     2019     0.2             12
# # … with 143 more rows
```
…
.push-right[
<img src="https://www.native-instruments.com/fileadmin/userlib/images/7727639_4467.normal-light.png" width="100%" style="display: block; margin: auto;" />
]
]
.panel[.panel-name[R Code]

```r
(Dat <- Dat %>%
   mutate( # Z-Standardize variables.
     z_socialist = scale(socialist) %>% as.numeric(),
     z_poverty = scale(poverty) %>% as.numeric()))
# # A tibble: 139 × 7
#    country     date poverty citizen_rights socialist z_socialist z_poverty
#    <chr>      <dbl>   <dbl>          <dbl>     <dbl>       <dbl>     <dbl>
#  1 Albania     2019    10                8        21       1.72     -0.784
#  2 Algeria     2011    28.6              3         0      -0.252    -0.250
#  3 Angola      2018    88.5              3         0      -0.252     1.47 
#  4 Argentina   2020    18.2             10         0      -0.252    -0.548
#  5 Armenia     2020    44.7              6         0      -0.252     0.213
#  6 Australia   2018     0.7             12         0      -0.252    -1.05 
#  7 Austria     2019     0.8             12         0      -0.252    -1.05 
#  8 Bangladesh  2016    84.2              6         0      -0.252     1.35 
#  9 Belarus     2020     0.1              1         0      -0.252    -1.07 
# 10 Belgium     2019     0.2             12         0      -0.252    -1.07 
# # … with 129 more rows
```
…
