Multiple Regression & Fundamentals of Causal Inference
…
```r
(Dat <- wb_data("SI.POV.DDAY", # Download poverty data: <$2.15 per day,
                start_date = 2002, end_date = 2022) %>%
   rename(poverty = SI.POV.DDAY) %>% # rename poverty variable,
   select(country, date, poverty) %>% # Keep only 3 variables
   drop_na(poverty) %>% group_by(country) %>% # Group by country,
   filter(date == max(date)) %>% # Keep the most recent data per country.
   mutate(date = as.numeric(date)) %>% ungroup())
# # A tibble: 162 × 3
#    country     date poverty
#    <chr>      <dbl>   <dbl>
#  1 Albania     2020     0  
#  2 Algeria     2011     0.5
#  3 Angola      2018    31.1
#  4 Argentina   2021     1  
#  5 Armenia     2021     0.5
#  6 Australia   2018     0.5
#  7 Austria     2020     0.7
#  8 Azerbaijan  2005     0  
#  9 Bangladesh  2022     9.6
# 10 Belarus     2020     0  
# # ℹ 152 more rows
```
…
```r
(fict_dat <- tibble(years_indep = 1:500))
# # A tibble: 500 × 1
#    years_indep
#          <int>
#  1           1
#  2           2
#  3           3
#  4           4
#  5           5
#  6           6
#  7           7
#  8           8
#  9           9
# 10          10
# # ℹ 490 more rows
```
]]
.push-right[
**Step 2**: What `\(\hat{y}\)` does our OLS model predict for the fictional data?
.font90[

```r
*(fict_dat <- predict(
* object = ols,
* newdata = fict_dat,
* interval = "confidence", level = 0.95)$fit %>%
   as_tibble() %>% # Turn into a tibble, then
   bind_cols(fict_dat, .)) # Add to the synthetic data.
# # A tibble: 500 × 4
#    years_indep   fit   lwr   upr
#          <int> <dbl> <dbl> <dbl>
#  1           1  31.0  22.6  39.5
#  2           2  30.9  22.5  39.3
#  3           3  30.7  22.4  39.1
#  4           4  30.6  22.3  38.9
#  5           5  30.5  22.2  38.8
#  6           6  30.3  22.1  38.6
#  7           7  30.2  22.0  38.4
#  8           8  30.1  21.9  38.2
#  9           9  29.9  21.8  38.0
# 10          10  29.8  21.8  37.9
# # ℹ 490 more rows
```
…
