Multiple OLS regression
…
.right-column[
.center[
**Step 1: Regress `\(Y\)` on `\(C\)`, then keep residuals.**
]
.push-left[
.font80[

```r
# Regress xeno on age,
(toydat <- lm_robust(xeno ~ age, data = toydat) %>%
   # Get residuals,
   add_residuals(toydat, model = .) %>% 
   # Rename residuals.
   rename(e_xeno = resid)) 
# # A tibble: 500 × 5
#      age int_day  bali   xeno e_xeno
#    <dbl>   <dbl> <dbl>  <dbl>  <dbl>
#  1  50.0  -2.15      1  2.48  -0.157
#  2  55.6  -3.35      0  1.77  -1.05 
#  3  50.4  -1.14      1  3.49   0.839
#  4  39.1  -2.65      0  1.71  -0.590
#  5  59.9  -4.05      0  1.58  -1.37 
#  6  58.9  -2.53      0  3.40   0.483
#  7  38.4  -1.89      1  2.16  -0.119
#  8  53.3  -2.80      0 -0.285 -3.03 
#  9  28.4  -0.373     1  1.21  -0.756
# 10  37.9  -1.06      1  2.60   0.330
# # … with 490 more rows
```
…
.right-column[
.center[
**Step 2: Regress `\(D\)` on `\(C\)`, then keep residuals.**
]
.push-left[
.font80[

```r
# Regress xeno on age,
(toydat <- lm_robust(bali ~ age, data = toydat) %>%
   # Get residuals,
   add_residuals(toydat, model = .) %>%
   # Rename residuals.
   rename(e_bali = resid))
# # A tibble: 500 × 6
#      age int_day  bali   xeno e_xeno e_bali
#    <dbl>   <dbl> <dbl>  <dbl>  <dbl>  <dbl>
#  1  50.0  -2.15      1  2.48  -0.157  0.582
#  2  55.6  -3.35      0  1.77  -1.05  -0.318
#  3  50.4  -1.14      1  3.49   0.839  0.590
#  4  39.1  -2.65      0  1.71  -0.590 -0.609
#  5  59.9  -4.05      0  1.58  -1.37  -0.243
#  6  58.9  -2.53      0  3.40   0.483 -0.261
#  7  38.4  -1.89      1  2.16  -0.119  0.378
#  8  53.3  -2.80      0 -0.285 -3.03  -0.360
#  9  28.4  -0.373     1  1.21  -0.756  0.201
# 10  37.9  -1.06      1  2.60   0.330  0.369
# # … with 490 more rows
```
…
