Multiple Regression & Fundamentals of Causal Inference
…
.right-column[
<iframe src='https://en.wikipedia.org/wiki/Freedom_House' width='1200' height='480' frameborder='0' scrolling='yes'></iframe>
]]
.panel[.panel-name[Use API to get the data]

```r
*(Dat_citi_rights <- download_fh(verbose = FALSE) %>% # Use API to download FH data for all countries since 1972,
   rename(country = fh_country, # rename country ID,
          citizen_rights = fh_total_reversed, # rename Citizenship rights indicator,
          date = year) %>% # rename year variable,
   select(country, date, citizen_rights)) # Keep only these 3 variables.
# # A tibble: 9,045 × 3
#    country      date citizen_rights
#    <chr>       <dbl>          <dbl>
#  1 Afghanistan  1972              5
#  2 Afghanistan  1973              1
#  3 Afghanistan  1974              1
#  4 Afghanistan  1975              1
#  5 Afghanistan  1976              1
#  6 Afghanistan  1977              2
#  7 Afghanistan  1978              0
#  8 Afghanistan  1979              0
#  9 Afghanistan  1980              0
# 10 Afghanistan  1982              0
# # ℹ 9,035 more rows
```
…
---
class: clear
# (2) World Bank Data .font70[Poverty across the world]

.panelset[
.panel[.panel-name[Searching WB archive]
- With `wbstats::wb_search()`, you can search the Wb archive for any keyword! Here I use "poverty":

```r
*(wb_poverty_archive <- wb_search("Poverty"))
# # A tibble: 702 × 3
#    indicator_id         indicator                               indicator_desc                                     
#    <chr>                <chr>                                   <chr>                                              
#  1 1.0.HCount.1.90usd   Poverty Headcount ($1.90 a day)         The poverty headcount index measures the proportio…
#  2 1.0.HCount.2.5usd    Poverty Headcount ($2.50 a day)         The poverty headcount index measures the proportio…
#  3 1.0.HCount.Mid10to50 Middle Class ($10-50 a day) Headcount   The poverty headcount index measures the proportio…
#  4 1.0.HCount.Ofcl      Official Moderate Poverty Rate-National The poverty headcount index measures the proportio…
#  5 1.0.HCount.Poor4uds  Poverty Headcount ($4 a day)            The poverty headcount index measures the proportio…
#  6 1.0.HCount.Vul4to10  Vulnerable ($4-10 a day) Headcount      The poverty headcount index measures the proportio…
#  7 1.0.PGap.1.90usd     Poverty Gap ($1.90 a day)               The poverty gap captures the mean aggregate income…
#  8 1.0.PGap.2.5usd      Poverty Gap ($2.50 a day)               The poverty gap captures the mean aggregate income…
#  9 1.0.PGap.Poor4uds    Poverty Gap ($4 a day)                  The poverty gap captures the mean aggregate income…
# 10 1.0.PSev.1.90usd     Poverty Severity ($1.90 a day)          The poverty severity index combines information on…
# # ℹ 692 more rows
```
]
.panel[.panel-name[Use WB API]

```r
*(Dat_poverty <- wb_data("SI.POV.DDAY", # Download poverty data: <$2.15 per day,
*                       start_date = 2002, end_date = 2023) %>%
   rename(poverty = SI.POV.DDAY) %>% # rename poverty variable,
   select(country, date, poverty) %>% # Keep only 3 variables
   drop_na(poverty) %>% # Drop cases with missing data,
   group_by(country) %>% # Group by country,
   filter(date == max(date)) %>% ungroup()) # Keep the most recent poverty statistic per country.
# # A tibble: 162 × 3
#    country     date poverty
#    <chr>      <dbl>   <dbl>
#  1 Albania     2020     0  
#  2 Algeria     2011     0.5
#  3 Angola      2018    31.1
#  4 Argentina   2021     1  
#  5 Armenia     2021     0.5
#  6 Australia   2018     0.5
#  7 Austria     2020     0.7
#  8 Azerbaijan  2005     0  
#  9 Bangladesh  2016    13.5
# 10 Belarus     2020     0  
# # ℹ 152 more rows
```
…
.right-column[
<img src="https://d33wubrfki0l68.cloudfront.net/245292d1ea724f6c3fd8a92063dcd7bfb9758d02/5751b/diagrams/relational-nycflights.png" width="100%" style="display: block; margin: auto;" />
]

---
# Relational data

Our tibbles are related, because both contain *countries* at various *dates*. <br>The combination of country and date is the **key** that allows us to relate both tibbles.

.push-left[

```r
Dat_citi_rights
# # A tibble: 9,045 × 3
#    country      date citizen_rights
#    <chr>       <dbl>          <dbl>
#  1 Afghanistan  1972              5
#  2 Afghanistan  1973              1
#  3 Afghanistan  1974              1
#  4 Afghanistan  1975              1
#  5 Afghanistan  1976              1
#  6 Afghanistan  1977              2
#  7 Afghanistan  1978              0
#  8 Afghanistan  1979              0
#  9 Afghanistan  1980              0
# 10 Afghanistan  1982              0
# # ℹ 9,035 more rows
```
]

.push-right[

```r
Dat_poverty
# # A tibble: 162 × 3
#    country     date poverty
#    <chr>      <dbl>   <dbl>
#  1 Albania     2020     0  
#  2 Algeria     2011     0.5
#  3 Angola      2018    31.1
#  4 Argentina   2021     1  
#  5 Armenia     2021     0.5
#  6 Australia   2018     0.5
#  7 Austria     2020     0.7
#  8 Azerbaijan  2005     0  
#  9 Bangladesh  2016    13.5
# 10 Belarus     2020     0  
# # ℹ 152 more rows
```
…
--

.push-right[
<img src="https://raw.githubusercontent.com/gadenbuie/tidyexplain/master/images/full-join.gif" width="90%" style="display: block; margin: auto;" />
.center[.backgrnote[*Source*: [Tidy Animated Verbs](https://github.com/gadenbuie/tidyexplain)]]
]

---
# Inner join .font70[Poverty and citizenship rights]

```r
*(Dat <- inner_join(Dat_poverty, Dat_citi_rights, by = c("country", "date")))
# # A tibble: 145 × 4
#    country     date poverty citizen_rights
#    <chr>      <dbl>   <dbl>          <dbl>
#  1 Albania     2020     0                8
#  2 Algeria     2011     0.5              3
#  3 Angola      2018    31.1              3
#  4 Argentina   2021     1               10
#  5 Armenia     2021     0.5              6
#  6 Australia   2018     0.5             12
#  7 Austria     2020     0.7             12
#  8 Azerbaijan  2005     0                3
#  9 Bangladesh  2016    13.5              6
# 10 Belarus     2020     0                1
# # ℹ 135 more rows
```
…
```r
Dat
# # A tibble: 145 × 5
#    country     date poverty citizen_rights socialist
#    <chr>      <dbl>   <dbl>          <dbl>     <dbl>
#  1 Albania     2020     0                8        20
#  2 Algeria     2011     0.5              3        49
#  3 Angola      2018    31.1              3         5
#  4 Argentina   2021     1               10         0
#  5 Armenia     2021     0.5              6         0
#  6 Australia   2018     0.5             12         0
#  7 Austria     2020     0.7             12         0
#  8 Azerbaijan  2005     0                3         0
#  9 Bangladesh  2016    13.5              6        44
# 10 Belarus     2020     0                1        14
# # ℹ 135 more rows
```
…
**We divide by the standard deviation:** Our variable now has standard deviations as unit.<br><br> `\(\rightarrow\)` Intuitive understanding how common vis-á-vis extreme cases are.
]

.push-right[
<img src="https://www.native-instruments.com/fileadmin/userlib/images/7727639_4467.normal-light.png" width="100%" style="display: block; margin: auto;" />
]
]
.panel[.panel-name[R Code]

```r
(Dat <- Dat %>%
   mutate( # Z-Standardize variables.
*    z_socialist = scale(socialist) %>% as.numeric(),
*    z_poverty = scale(poverty) %>% as.numeric()))
# # A tibble: 145 × 7
#    country     date poverty citizen_rights socialist z_socialist z_poverty
#    <chr>      <dbl>   <dbl>          <dbl>     <dbl>       <dbl>     <dbl>
#  1 Albania     2020     0                8        20       0.907    -0.623
#  2 Algeria     2011     0.5              3        49       2.88     -0.596
#  3 Angola      2018    31.1              3         5      -0.114     1.05 
#  4 Argentina   2021     1               10         0      -0.454    -0.569
#  5 Armenia     2021     0.5              6         0      -0.454    -0.596
#  6 Australia   2018     0.5             12         0      -0.454    -0.596
#  7 Austria     2020     0.7             12         0      -0.454    -0.585
#  8 Azerbaijan  2005     0                3         0      -0.454    -0.623
#  9 Bangladesh  2016    13.5              6        44       2.54      0.104
# 10 Belarus     2020     0                1        14       0.498    -0.623
# # ℹ 135 more rows
```
…
