Exercise 1 (20 minutes)
…
Bonus (for the fast): Dat has ~160
countries, but V-Dem covers 179 — where did the rest go? Find the
countries we lost in the join, using anti_join().
Why are they missing?

R solution

Dat_vdem %>%
  filter(year > 2015) %>% # Recent years only
  anti_join(Dat_poverty, by = c("country_text_id", "year")) %>%
  distinct(country_text_id)
# # A tibble: 179 x 1
#    country_text_id
#    <chr>          
#  1 MEX            
#  2 SUR            
#  3 SWE            
#  4 CHE            
#  5 GHA            
#  6 ZAF            
#  7 JPN            
#  8 MMR            
#  9 RUS            
# 10 ALB            
# # i 169 more rows
…
