Instrument Variables II
…
```r
pacman::p_load(
  tidyverse, # Data manipulation,
  ggplot2, # beautiful figures,
  texreg, # regression tables with nice layout,
  estimatr, # Regression for weighted data,
  modelr, # Turn results of lm() into a tibble,
  ivreg, # IV 2SLS,
  masteringmetrics) # Data and examples from Mastering Metrics

# Load the data from the Quarter of Birth IV study
data("ak91", package = "masteringmetrics")
ak91
# # A tibble: 329,509 × 6
#      lnw     s   yob   qob   sob   age
#    <dbl> <int> <int> <dbl> <int> <dbl>
#  1  5.79    12  1930     1    45    50
#  2  5.95    11  1930     1    45    50
#  3  5.32    12  1930     1    45    50
#  4  5.60    12  1930     1    45    50
#  5  6.07    12  1930     1    37    50
#  6  5.79    11  1930     1    45    50
#  7  6.39    11  1930     1    36    50
#  8  6.05    12  1930     1    51    50
#  9  5.35    11  1930     1    45    50
# 10  5.26     7  1930     1    45    50
# # … with 329,499 more rows
```
…
<img src="10-IV-2SLS_files/figure-html/unnamed-chunk-14-1.png" width="100%" style="display: block; margin: auto;" />
]

.right-column[

```r
frst_stage <- lm_robust(s ~ qob, data = ak91) # Bivariate OLS

(ak91 <- ak91 %>% # Add predictions and residuals
  add_predictions(frst_stage, data = .) %>%
  add_residuals(frst_stage, data = .) %>%
  rename(pred_s = pred, e_s = resid))
# # A tibble: 329,509 × 8
#      lnw     s   yob   qob   sob   age pred_s    e_s
#    <dbl> <int> <int> <dbl> <int> <dbl>  <dbl>  <dbl>
#  1  5.79    12  1930     1    45    50   12.7 -0.692
#  2  5.95    11  1930     1    45    50   12.7 -1.69 
#  3  5.32    12  1930     1    45    50   12.7 -0.692
#  4  5.60    12  1930     1    45    50   12.7 -0.692
#  5  6.07    12  1930     1    37    50   12.7 -0.692
#  6  5.79    11  1930     1    45    50   12.7 -1.69 
#  7  6.39    11  1930     1    36    50   12.7 -1.69 
#  8  6.05    12  1930     1    51    50   12.7 -0.692
#  9  5.35    11  1930     1    45    50   12.7 -1.69 
# 10  5.26     7  1930     1    45    50   12.7 -5.69 
# # … with 329,499 more rows
```
…
