Polynomials and transformations
…
``` r
Dat
# # A tibble: 3,897 × 8
#    country_text_id country      year LifeExpect HealthExp country_name equal_liberty socialist
#    <chr>           <chr>       <dbl>      <dbl>     <dbl> <chr>                <dbl>     <dbl>
#  1 AFG             Afghanistan  2002       56.2      85.9 Afghanistan          0.38          0
#  2 AFG             Afghanistan  2003       57.2      85.9 Afghanistan          0.377         0
#  3 AFG             Afghanistan  2004       57.8      93.9 Afghanistan          0.377         0
#  4 AFG             Afghanistan  2005       58.2     106.  Afghanistan          0.379         0
#  5 AFG             Afghanistan  2006       58.6     118.  Afghanistan          0.379         0
#  6 AFG             Afghanistan  2007       59.0     112.  Afghanistan          0.379         0
#  7 AFG             Afghanistan  2008       59.7     137.  Afghanistan          0.379         0
#  8 AFG             Afghanistan  2009       60.2     153.  Afghanistan          0.381         0
#  9 AFG             Afghanistan  2010       60.7     148.  Afghanistan          0.388         0
# 10 AFG             Afghanistan  2011       61.2     147.  Afghanistan          0.394         0
# # ℹ 3,887 more rows
```
…
.push-right[
.panelset[
.panel[.panel-name[Fictional data]
.font90[

``` r
(fict_dat <- tibble( # 1. Make fictional data
  # Realistic variation in x: Min to max
  HealthExp = min(Dat$HealthExp):max(Dat$HealthExp), 
  # Hold other variables constant.
  socialist = 0, # Non-socialist
  equal_liberty = 1, # Max democracy
  year = 2022)) # most recent date
# # A tibble: 12,429 × 4
#    HealthExp socialist equal_liberty  year
#        <dbl>     <dbl>         <dbl> <dbl>
#  1      6.11         0             1  2022
#  2      7.11         0             1  2022
#  3      8.11         0             1  2022
#  4      9.11         0             1  2022
#  5     10.1          0             1  2022
#  6     11.1          0             1  2022
#  7     12.1          0             1  2022
#  8     13.1          0             1  2022
#  9     14.1          0             1  2022
# 10     15.1          0             1  2022
# # ℹ 12,419 more rows
```
]]
.panel[.panel-name[Predict]
.font90[

``` r
(fict_dat <- predict( # 2. Add predctions based on the model
  ols_4, newdata = fict_dat,
  interval = "confidence", level = 0.95)$fit %>%
   as_tibble() %>% # Turn into a tibble, then
   bind_cols(fict_dat, .)) # Add to the synthetic data.
# # A tibble: 12,429 × 7
#    HealthExp socialist equal_liberty  year   fit   lwr   upr
#        <dbl>     <dbl>         <dbl> <dbl> <dbl> <dbl> <dbl>
#  1      6.11         0             1  2022  64.8  62.6  67.0
#  2      7.11         0             1  2022  64.8  62.6  67.0
#  3      8.11         0             1  2022  64.9  62.7  67.1
#  4      9.11         0             1  2022  64.9  62.7  67.1
#  5     10.1          0             1  2022  64.9  62.7  67.1
#  6     11.1          0             1  2022  64.9  62.7  67.1
#  7     12.1          0             1  2022  64.9  62.7  67.1
#  8     13.1          0             1  2022  64.9  62.7  67.1
#  9     14.1          0             1  2022  64.9  62.7  67.1
# 10     15.1          0             1  2022  64.9  62.7  67.1
# # ℹ 12,419 more rows
```
…
---
.push-right[
.panelset[
.panel[.panel-name[Fictional data]
.font90[

``` r
(fict_dat <- tibble( # 1. Make fictional data
  # Realistic variation in x: Min to max
  HealthExp = min(Dat$HealthExp):max(Dat$HealthExp), 
  # Hold other variables constant.
  socialist = 0, # Non-socialist
  equal_liberty = 1, # Max democracy
  year = 2022)) # most recent date
# # A tibble: 12,429 × 4
#    HealthExp socialist equal_liberty  year
#        <dbl>     <dbl>         <dbl> <dbl>
#  1      6.11         0             1  2022
#  2      7.11         0             1  2022
#  3      8.11         0             1  2022
#  4      9.11         0             1  2022
#  5     10.1          0             1  2022
#  6     11.1          0             1  2022
#  7     12.1          0             1  2022
#  8     13.1          0             1  2022
#  9     14.1          0             1  2022
# 10     15.1          0             1  2022
# # ℹ 12,419 more rows
```
]]
.panel[.panel-name[Predict]
.font90[

``` r
(fict_dat <- predict( # 2. Get predictions
  ols_5, newdata = fict_dat,
  interval = "confidence", level = 0.95)$fit %>%
   as_tibble() %>% # Turn into a tibble, then
   bind_cols(fict_dat, .)) # Add to the synthetic data.
# # A tibble: 12,429 × 7
#    HealthExp socialist equal_liberty  year   fit   lwr   upr
#        <dbl>     <dbl>         <dbl> <dbl> <dbl> <dbl> <dbl>
#  1      6.11         0             1  2022  61.5  59.3  63.7
#  2      7.11         0             1  2022  61.5  59.3  63.7
#  3      8.11         0             1  2022  61.5  59.3  63.7
#  4      9.11         0             1  2022  61.5  59.3  63.8
#  5     10.1          0             1  2022  61.6  59.4  63.8
#  6     11.1          0             1  2022  61.6  59.4  63.8
#  7     12.1          0             1  2022  61.6  59.4  63.8
#  8     13.1          0             1  2022  61.6  59.4  63.8
#  9     14.1          0             1  2022  61.6  59.4  63.8
# 10     15.1          0             1  2022  61.6  59.5  63.8
# # ℹ 12,419 more rows
```
…
.push-right[
.panelset[
.panel[.panel-name[Fictional data]
.font90[

``` r
(fict_dat <- tibble( # 1. Make fictional data
  # Realistic variation in x: Min to max
  HealthExp = min(Dat$HealthExp):max(Dat$HealthExp), 
  # Hold other variables constant.
  socialist = 0, # Non-socialist
  equal_liberty = 1, # Max democracy
  year = 2022)) # most recent date
# # A tibble: 12,429 × 4
#    HealthExp socialist equal_liberty  year
#        <dbl>     <dbl>         <dbl> <dbl>
#  1      6.11         0             1  2022
#  2      7.11         0             1  2022
#  3      8.11         0             1  2022
#  4      9.11         0             1  2022
#  5     10.1          0             1  2022
#  6     11.1          0             1  2022
#  7     12.1          0             1  2022
#  8     13.1          0             1  2022
#  9     14.1          0             1  2022
# 10     15.1          0             1  2022
# # ℹ 12,419 more rows
```
]]
.panel[.panel-name[Predict]
.font90[

``` r
(fict_dat <- predict( # 2. Get predictions
  ols_6, newdata = fict_dat,
  interval = "confidence", level = 0.95)$fit %>%
   as_tibble() %>% # Turn into a tibble, then
   bind_cols(fict_dat, .)) # Add to the synthetic data.
# # A tibble: 12,429 × 7
#    HealthExp socialist equal_liberty  year   fit   lwr   upr
#        <dbl>     <dbl>         <dbl> <dbl> <dbl> <dbl> <dbl>
#  1      6.11         0             1  2022  46.8  43.3  50.2
#  2      7.11         0             1  2022  47.6  44.2  50.9
#  3      8.11         0             1  2022  48.3  45.0  51.6
#  4      9.11         0             1  2022  48.9  45.6  52.1
#  5     10.1          0             1  2022  49.4  46.2  52.6
#  6     11.1          0             1  2022  49.9  46.8  53.1
#  7     12.1          0             1  2022  50.4  47.3  53.5
#  8     13.1          0             1  2022  50.8  47.7  53.9
#  9     14.1          0             1  2022  51.2  48.2  54.2
# 10     15.1          0             1  2022  51.5  48.5  54.5
# # ℹ 12,419 more rows
```
…
