Regression Discontinuity Designs
…
```r
pacman::p_load(
  tidyverse, # Data manipulation,
  ggplot2, # beautiful figures,
  estimatr, # OLS with robust SE
  texreg, # regression tables with nice layout,
  rdrobust) # Non-parametric regression.

# Get the Minimum legal drinking age data!
data("mlda", package = "masteringmetrics")
mlda # print the tibble.
# # A tibble: 50 × 19
#    agecell   all allfitted internal interna…¹ exter…² exter…³ alcohol alcoh…⁴ homic…⁵ homic…⁶ suicide suici…⁷   mva
#      <dbl> <dbl>     <dbl>    <dbl>     <dbl>   <dbl>   <dbl>   <dbl>   <dbl>   <dbl>   <dbl>   <dbl>   <dbl> <dbl>
#  1    19.1  92.8      91.7     16.6      16.7    76.2    75.0   0.639   0.794    16.3    16.3    11.2    11.6  35.8
#  2    19.2  95.1      91.9     18.3      16.9    76.8    75.0   0.677   0.838    16.9    16.3    12.2    11.6  35.6
#  3    19.2  92.1      92.0     18.9      17.1    73.2    75.0   0.866   0.878    15.2    16.3    11.7    11.6  34.2
#  4    19.3  88.4      92.2     16.1      17.3    72.3    74.9   0.867   0.915    16.7    16.3    11.3    11.6  32.3
#  5    19.4  88.7      92.3     17.4      17.4    71.3    74.9   1.02    0.949    14.9    16.3    11.0    11.6  32.7
#  6    19.5  90.2      92.5     17.9      17.6    72.3    74.9   1.17    0.981    15.6    16.3    12.2    11.6  32.7
#  7    19.6  96.2      92.6     16.4      17.8    79.8    74.8   0.870   1.01     16.3    16.3    12.4    11.6  36.4
#  8    19.6  89.6      92.7     16.0      17.9    73.6    74.8   1.10    1.03     15.8    16.3    11.0    11.6  34.2
#  9    19.7  93.4      92.8     17.4      18.1    75.9    74.7   1.17    1.06     16.8    16.3    11.9    11.6  31.9
# 10    19.8  90.9      92.9     18.3      18.2    72.6    74.6   0.948   1.08     16.6    16.4    11.6    11.6  30.6
# # … with 40 more rows, 5 more variables: mvafitted <dbl>, drugs <dbl>, drugsfitted <dbl>, externalother <dbl>,
# #   externalotherfitted <dbl>, and abbreviated variable names ¹​internalfitted, ²​external, ³​externalfitted,
# #   ⁴​alcoholfitted, ⁵​homicide, ⁶​homicidefitted, ⁷​suicidefitted
```
…
