Randomized Controlled Trials
…
.right-column[

```
# # A tibble: 1,102 × 18
#    news_hrs news_mins dis_trainee dis_job dis_school dis_house dis_gov dis_public gewFAKT gender   age imor  german
#       <dbl>     <dbl>       <dbl>   <dbl>      <dbl>     <dbl>   <dbl>      <dbl>   <dbl> <fct>  <dbl> <fct> <fct> 
#  1        1         0           3       3          4         5       2          2   0.105 Männl…    35 Immi… Ja    
#  2        1         1           5      NA          1         1       1          1   0.103 Männl…    30 Immi… Nein  
#  3        0        30           1       2          1         3       3          2   0.802 Männl…    35 Immi… Nein  
#  4        0        10           3       3          2         5       1          3   0.104 Männl…    28 Immi… Nein  
#  5        0        30           2       3         NA         5       3          3   0.639 Weibl…    37 Immi… Nein  
#  6        2         0          NA       2         NA         4       3          2   0.2   Männl…    51 Immi… Ja    
#  7        3        58           1       1          1         1       1          1   2.42  Männl…    40 Immi… Ja    
#  8        5         0           3       1          1         3       1          1   0.102 Männl…    31 Chil… Ja    
#  9        1        15           4       4          4         4       4          4   6.19  Männl…    76 Immi… Nein  
# 10        0        30           1       2          1         1       1          2   2.08  Männl…    32 Immi… Nein  
# # … with 1,092 more rows, and 5 more variables: nbh_exposed <dbl>, appearance <fct>, news <dbl>, news_yn <dbl>,
# #   dis_index <dbl>
```
…
