4 Regression
…
---
class: clear
# Worldbank Data .font70[On extreme poverty across the World]

.panelset[
.panel[.panel-name[Searching Wb archive]
- With `wbstats::wb_search()`, you can search the Wb archive for any keyword! Here I use "poverty":

```r
(wb_poverty_archive <- wb_search("poverty"))
# # A tibble: 702 × 3
#    indicator_id         indicator                               indicator_desc                                     
#    <chr>                <chr>                                   <chr>                                              
#  1 1.0.HCount.1.90usd   Poverty Headcount ($1.90 a day)         The poverty headcount index measures the proportio…
#  2 1.0.HCount.2.5usd    Poverty Headcount ($2.50 a day)         The poverty headcount index measures the proportio…
#  3 1.0.HCount.Mid10to50 Middle Class ($10-50 a day) Headcount   The poverty headcount index measures the proportio…
#  4 1.0.HCount.Ofcl      Official Moderate Poverty Rate-National The poverty headcount index measures the proportio…
#  5 1.0.HCount.Poor4uds  Poverty Headcount ($4 a day)            The poverty headcount index measures the proportio…
#  6 1.0.HCount.Vul4to10  Vulnerable ($4-10 a day) Headcount      The poverty headcount index measures the proportio…
#  7 1.0.PGap.1.90usd     Poverty Gap ($1.90 a day)               The poverty gap captures the mean aggregate income…
#  8 1.0.PGap.2.5usd      Poverty Gap ($2.50 a day)               The poverty gap captures the mean aggregate income…
#  9 1.0.PGap.Poor4uds    Poverty Gap ($4 a day)                  The poverty gap captures the mean aggregate income…
# 10 1.0.PSev.1.90usd     Poverty Severity ($1.90 a day)          The poverty severity index combines information on…
# # … with 692 more rows
```
]
.panel[.panel-name[Get Wb data]

```r
(Dat <- wb_data("SI.POV.DDAY", # Download poverty data: <1.90$ per day,
                start_date = 2002, end_date = 2022) %>%
   rename(poverty = SI.POV.DDAY) %>% # rename poverty variable,
   select(country, date, poverty) %>% # Keep only 3 variables
   drop_na(poverty) %>% # Drop cases with missing data,
   group_by(country) %>% # Group by country,
   filter(date == max(date)) %>% # Keep the most recent data per country.
   mutate(date = as.numeric(date)) %>%
   ungroup())
# # A tibble: 163 × 3
#    country     date poverty
#    <chr>      <dbl>   <dbl>
#  1 Albania     2019     0  
#  2 Algeria     2011     0.4
#  3 Angola      2018    49.9
#  4 Argentina   2020     1.6
#  5 Armenia     2020     0.4
#  6 Australia   2018     0.5
#  7 Austria     2019     0.6
#  8 Azerbaijan  2005     0  
#  9 Bangladesh  2016    14.3
# 10 Belarus     2020     0  
# # … with 153 more rows
```
…
