Multiple Regression & Fundamentals of Causal Inference
…
.push-right[.font80[
<br>

```
# # A tibble: 1,093 × 24
#    antidiscr_law dis_index news_hrs news_mins dis_trainee dis_job dis_school dis_house dis_gov dis_public gewFAKT
#            <dbl>     <dbl>    <dbl>     <dbl>       <dbl>   <dbl>      <dbl>     <dbl>   <dbl>      <dbl>   <dbl>
#  1             5      3.17        1         0           3       3          4         5       2          2   0.105
#  2             4      1.8         1         1           5      NA          1         1       1          1   0.103
#  3             3      2           0        30           1       2          1         3       3          2   0.802
#  4             5      2.83        0        10           3       3          2         5       1          3   0.104
#  5             4      3.2         0        30           2       3         NA         5       3          3   0.639
#  6             5      2.75        2         0          NA       2         NA         4       3          2   0.2  
#  7             2      1           3        58           1       1          1         1       1          1   2.42 
#  8             4      1.67        5         0           3       1          1         3       1          1   0.102
#  9             5      4           1        15           4       4          4         4       4          4   6.19 
# 10             4      1.33        0        30           1       2          1         1       1          2   2.08 
# # ℹ 1,083 more rows
# # ℹ 13 more variables: gender <fct>, age <dbl>, imor <fct>, german <fct>, nbh_exposed <dbl>, appearance <fct>,
# #   article <chr>, ment_happy <dbl>, leftright <dbl>, gen_trust <dbl>, news <dbl>, news_yn <dbl>,
# #   z_dis_index <dbl>
```
…
