Multiple Regression & Fundamentals of Causal Inference
…
``` r
ESS
# # A tibble: 3,330 × 7
#     idno cntry    pspwght gndr   eduyrs  agea imwbcnt
#    <dbl> <fct>      <dbl> <fct>   <dbl> <dbl>   <dbl>
#  1     2 Bulgaria   0.933 Female     12    72       9
#  2    27 Bulgaria   0.455 Male       17    63       8
#  3    37 Bulgaria   1.02  Male        9    74       8
#  4    50 Bulgaria   0.845 Female     12    39       7
#  5    70 Bulgaria   0.740 Female     12    70       5
#  6    76 Bulgaria   0.704 Female     12    52       3
#  7   137 Bulgaria   1.86  Male        9    24       5
#  8   182 Bulgaria   0.503 Male       17    58       4
#  9   208 Bulgaria   1.32  Male       12    52       1
# 10   234 Bulgaria   1.49  Male       17    76       7
# # ℹ 3,320 more rows
```
…
.push-left[

``` r
ESS <- ESS %>% mutate(
    cntry_num = case_when(
      # Numerical cntry dummy variable,
      cntry == "Denmark" ~ 0,
      cntry == "Bulgaria" ~ 1),
    # Generate interaction term by hand
    intr_trm = cntry_num * eduyrs)

ESS %>% 
  select(idno, cntry, cntry_num, eduyrs, intr_trm)
# # A tibble: 3,330 × 5
#     idno cntry    cntry_num eduyrs intr_trm
#    <dbl> <fct>        <dbl>  <dbl>    <dbl>
#  1     2 Bulgaria         1     12       12
#  2    27 Bulgaria         1     17       17
#  3    37 Bulgaria         1      9        9
#  4    50 Bulgaria         1     12       12
#  5    70 Bulgaria         1     12       12
#  6    76 Bulgaria         1     12       12
#  7   137 Bulgaria         1      9        9
#  8   182 Bulgaria         1     17       17
#  9   208 Bulgaria         1     12       12
# 10   234 Bulgaria         1     17       17
# # ℹ 3,320 more rows
```
…
.push-right[
.panelset[
.panel[.panel-name[Fictional data]
.font90[

``` r
(fict_dat <- tibble(
* # Repeat the vector -5:8, each element twice
* mc_eduyrs = rep(-5:8, each = 2),
* # Repeat DK/BG 14 times
* cntry = rep(c("Denmark", "Bulgaria"), 14),
  # Set controls to constant value
  gndr = "Female",
  agea = mean(ESS$agea, na.rm = TRUE)))
# # A tibble: 28 × 4
#    mc_eduyrs cntry    gndr    agea
#        <int> <chr>    <chr>  <dbl>
#  1        -5 Denmark  Female  52.2
#  2        -5 Bulgaria Female  52.2
#  3        -4 Denmark  Female  52.2
#  4        -4 Bulgaria Female  52.2
#  5        -3 Denmark  Female  52.2
#  6        -3 Bulgaria Female  52.2
#  7        -2 Denmark  Female  52.2
#  8        -2 Bulgaria Female  52.2
#  9        -1 Denmark  Female  52.2
# 10        -1 Bulgaria Female  52.2
# # ℹ 18 more rows
```
]]
.panel[.panel-name[Predictions]
.font90[

``` r
*(fict_dat <- predict(
* ols_inter4, newdata = fict_dat,
* interval = "confidence", level = 0.95)$fit %>%
   as_tibble() %>% # Turn into a tibble, then
   bind_cols(fict_dat, .)) # Add to the synthetic data.
# # A tibble: 28 × 7
#    mc_eduyrs cntry    gndr    agea   fit   lwr   upr
#        <int> <chr>    <chr>  <dbl> <dbl> <dbl> <dbl>
#  1        -5 Denmark  Female  52.2  4.91  4.64  5.19
#  2        -5 Bulgaria Female  52.2  5.79  5.55  6.02
#  3        -4 Denmark  Female  52.2  4.81  4.56  5.05
#  4        -4 Bulgaria Female  52.2  5.83  5.63  6.04
#  5        -3 Denmark  Female  52.2  4.70  4.48  4.92
#  6        -3 Bulgaria Female  52.2  5.87  5.69  6.06
#  7        -2 Denmark  Female  52.2  4.59  4.39  4.79
#  8        -2 Bulgaria Female  52.2  5.92  5.75  6.08
#  9        -1 Denmark  Female  52.2  4.48  4.30  4.66
# 10        -1 Bulgaria Female  52.2  5.96  5.80  6.11
# # ℹ 18 more rows
```
…
