Multiple Regression & Fundamentals of Causal Inference
…
``` r
# Regress poverty on citizen rights,
(Dat <- lm_robust(poverty ~ citizen_rights, 
                  data = Dat) %>%
   # Get residuals,
   add_residuals(Dat, model = .) %>% 
   # Rename residuals.
   rename(e_poverty = resid)) 
# # A tibble: 147 × 6
#    country     date poverty citizen_rights socialist e_poverty
#    <chr>      <dbl>   <dbl>          <dbl>     <dbl>     <dbl>
#  1 Albania     2020     0                8        20    -9.77 
#  2 Algeria     2011     0                3        49   -20.7  
#  3 Angola      2018    31.1              3         5    10.4  
#  4 Argentina   2022     0.6             10         0    -4.79 
#  5 Armenia     2022     0.8              6         0   -13.4  
#  6 Australia   2018     0.5             12         0    -0.500
#  7 Austria     2021     0.5             12         0    -0.500
#  8 Azerbaijan  2005     0                3         0   -20.7  
#  9 Bangladesh  2022     5                4        50   -13.5  
# 10 Belarus     2020     0                1        14   -25.1  
# # ℹ 137 more rows
```
…
``` r
# Regress socialism on citizen rights,
(Dat <- lm_robust(socialist ~ citizen_rights, 
                  data = Dat) %>%
   # Get residuals,
   add_residuals(Dat, model = .) %>% 
   # Rename residuals.
   rename(e_socialist = resid)) 
# # A tibble: 147 × 7
#    country     date poverty citizen_rights socialist e_poverty e_socialist
#    <chr>      <dbl>   <dbl>          <dbl>     <dbl>     <dbl>       <dbl>
#  1 Albania     2020     0                8        20    -9.77        14.2 
#  2 Algeria     2011     0                3        49   -20.7         40.0 
#  3 Angola      2018    31.1              3         5    10.4         -3.95
#  4 Argentina   2022     0.6             10         0    -4.79        -4.52
#  5 Armenia     2022     0.8              6         0   -13.4         -7.05
#  6 Australia   2018     0.5             12         0    -0.500       -3.26
#  7 Austria     2021     0.5             12         0    -0.500       -3.26
#  8 Azerbaijan  2005     0                3         0   -20.7         -8.95
#  9 Bangladesh  2022     5                4        50   -13.5         41.7 
# 10 Belarus     2020     0                1        14   -25.1          3.78
# # ℹ 137 more rows
```
…
``` r
(fict_dat <- tibble(
  # Sequence from 0 to 100 for 'socialist' variable
  socialist = 0:100,  
* # Set 'citizen_rights' to the mean value from 'Dat'
* citizen_rights = mean(Dat$citizen_rights)))
# # A tibble: 101 × 2
#    socialist citizen_rights
#        <int>          <dbl>
#  1         0           7.56
#  2         1           7.56
#  3         2           7.56
#  4         3           7.56
#  5         4           7.56
#  6         5           7.56
#  7         6           7.56
#  8         7           7.56
#  9         8           7.56
# 10         9           7.56
# # ℹ 91 more rows
```
]]
.push-right[
**Step 2**: Apply estimated model to fictional data. Given fictional data, what `\(\hat{y}\)` does our model predict?
.font80[

``` r
(fict_dat <- predict( 
  ols_mult, # Predict using the 'ols_mult'
  newdata = fict_dat, # Use 'fict_dat' for prediction
  # Calculate 95% confidence intervals
  interval = "confidence", level = 0.95)$fit %>%  
  as_tibble() %>%  # Convert output to a tibble
  # Combine predictions with original 'fict_dat' 
  bind_cols(fict_dat, .))  
# # A tibble: 101 × 5
#    socialist citizen_rights   fit   lwr   upr
#        <int>          <dbl> <dbl> <dbl> <dbl>
#  1         0           7.56  11.9  8.84  14.9
#  2         1           7.56  11.7  8.75  14.7
#  3         2           7.56  11.5  8.65  14.4
#  4         3           7.56  11.3  8.54  14.1
#  5         4           7.56  11.1  8.42  13.8
#  6         5           7.56  10.9  8.29  13.6
#  7         6           7.56  10.8  8.14  13.4
#  8         7           7.56  10.6  7.97  13.2
#  9         8           7.56  10.4  7.79  13.0
# 10         9           7.56  10.2  7.59  12.8
# # ℹ 91 more rows
```
…
