Randomized Controlled Trials (RCT)
…
.right-column[

```
# # A tibble: 1,093 × 21
#    antidiscr_law dis_i…¹ news_…² news_…³ dis_t…⁴ dis_job dis_s…⁵ dis_h…⁶ dis_gov dis_p…⁷ gewFAKT gender   age imor 
#            <dbl>   <dbl>   <dbl>   <dbl>   <dbl>   <dbl>   <dbl>   <dbl>   <dbl>   <dbl>   <dbl> <fct>  <dbl> <fct>
#  1             5    3.17       1       0       3       3       4       5       2       2   0.105 Männl…    35 Immi…
#  2             4    1.8        1       1       5      NA       1       1       1       1   0.103 Männl…    30 Immi…
#  3             3    2          0      30       1       2       1       3       3       2   0.802 Männl…    35 Immi…
#  4             5    2.83       0      10       3       3       2       5       1       3   0.104 Männl…    28 Immi…
#  5             4    3.2        0      30       2       3      NA       5       3       3   0.639 Weibl…    37 Immi…
#  6             5    2.75       2       0      NA       2      NA       4       3       2   0.2   Männl…    51 Immi…
#  7             2    1          3      58       1       1       1       1       1       1   2.42  Männl…    40 Immi…
#  8             4    1.67       5       0       3       1       1       3       1       1   0.102 Männl…    31 Chil…
#  9             5    4          1      15       4       4       4       4       4       4   6.19  Männl…    76 Immi…
# 10             4    1.33       0      30       1       2       1       1       1       2   2.08  Männl…    32 Immi…
# # … with 1,083 more rows, 7 more variables: german <fct>, nbh_exposed <dbl>, appearance <fct>, article <chr>,
# #   news <dbl>, news_yn <dbl>, z_dis_index <dbl>, and abbreviated variable names ¹​dis_index, ²​news_hrs,
# #   ³​news_mins, ⁴​dis_trainee, ⁵​dis_school, ⁶​dis_house, ⁷​dis_public
# # ℹ Use `print(n = ...)` to see more rows, and `colnames()` to see all variable names
```
…
